{
    "name": "python3-modules",
    "buildsystem": "simple",
    "build-commands": [],
    "modules": [
        {
            "name": "python3-korean_romanizer",
            "buildsystem": "simple",
            "build-commands": [
                "pip3 install --exists-action=i --no-index --find-links=\"file://${PWD}\" --prefix=${FLATPAK_DEST} \"korean_romanizer\""
            ],
            "sources": [
                {
                    "type": "file",
                    "url": "https://files.pythonhosted.org/packages/e1/b9/ba1462c5282e1e0dc3ccfa814ed57cec8c17ff3772e5c557d92f123b4f86/korean_romanizer-0.11.tar.gz",
                    "sha256": "b2de7970fc8b9dd2bf05d9c647da89a18a58c4e008935533ec530117b4f98064"
                }
            ]
        },
        {
            "name": "python3-cutlet",
            "buildsystem": "simple",
            "build-options": {
                "build-args": [
                    "--share=network"
                ]
            },
            "build-commands": [
                "pip3 install --exists-action=i --find-links=\"file://${PWD}\" --prefix=${FLATPAK_DEST} \"cutlet\""
            ],
            "sources": [
                {
                    "type": "file",
                    "url": "https://files.pythonhosted.org/packages/95/ea/a17f3417cc41b2ed5dbc5407921b21d4364a627983243a65b36f89bebf86/fugashi-1.0.5.tar.gz",
                    "sha256": "150d353dd8aa863da6ae56c03ab21135c6541992af82a005279042b687c69d63"
                },
                {
                    "type": "file",
                    "url": "https://files.pythonhosted.org/packages/b0/9e/cf1353fb3e81a177bb52ca59a0ebee425f084b7298039a7965c5414d2d62/jaconv-0.2.4.tar.gz",
                    "sha256": "2ccdf768da20d55f30e8801e5e2e27783aae1bb29b890e503e1124134d6d09c9"
                },
                {
                    "type": "file",
                    "url": "https://files.pythonhosted.org/packages/d3/73/18afd5eda18fe127acc9cf27d065bdd46fc6d382f72f808c275389a6459d/cutlet-0.1.14.tar.gz",
                    "sha256": "1a23ac2d0cbc2d1444850df5a1f92d7dfaf7406ab067e51d90249efbba7c76dc"
                },
                {
                    "type": "file",
                    "url": "https://files.pythonhosted.org/packages/04/26/1001e7500bb381a249db3cbfde73bc4479415f936d77cfacda3996660cbe/mojimoji-0.0.11.tar.gz",
                    "sha256": "adef094e1bfd961e40c1fbd2d4664da1be2426d5b31884e27394226af15d50b5"
                }
            ]
        },
        {
            "name": "python3-unidic-lite",
            "buildsystem": "simple",
            "build-commands": [
                "pip3 install --exists-action=i --no-index --find-links=\"file://${PWD}\" --prefix=${FLATPAK_DEST} \"unidic-lite\""
            ],
            "sources": [
                {
                    "type": "file",
                    "url": "https://files.pythonhosted.org/packages/74/d2/a4233f65f718f27065a4cf23a2c4f05d8bd4c75821e092060c4efaf28e66/unidic-lite-1.0.7.tar.gz",
                    "sha256": "260798392fddc8746d7d5596dc9f9a4250a10f41961771cf709ec2dc7db8260a"
                }
            ]
        }
    ]
}
